<?xml version="1.0" encoding="UTF-8"?>
<svg width="14px" height="14px" viewBox="0 0 14 14" version="1.1" xmlns="http://www.w3.org/2000/svg" xmlns:xlink="http://www.w3.org/1999/xlink">
    <!-- Generator: Sketch 57.1 (83088) - https://sketch.com -->
    <title>ic_link external</title>
    <desc>Created with Sketch.</desc>
    <g id="Page-1" stroke="none" stroke-width="1" fill="none" fill-rule="evenodd">
        <g id="ic_link-external" transform="translate(1.000000, 1.000000)" fill="#0C2340" fill-rule="nonzero">
            <polygon id="Shape" points="12.5 -0.5 12.5 4.5 11.5 4.5 11.5 1.199 4.35370111 8.35340561 3.64629889 7.64659439 10.786 0.5 7.5 0.5 7.5 -0.5"></polygon>
            <polygon id="Path" points="8.5 11.5 0.5 11.5 0.5 3.5 5 3.5 5 2.5 -0.5 2.5 -0.5 12.5 9.5 12.5 9.5 7 8.5 7"></polygon>
        </g>
    </g>
</svg>