<?xml version="1.0" encoding="UTF-8"?>
<svg width="20px" height="22px" viewBox="0 0 20 22" version="1.1" xmlns="http://www.w3.org/2000/svg" xmlns:xlink="http://www.w3.org/1999/xlink">
    <!-- Generator: Sketch 57.1 (83088) - https://sketch.com -->
    <title>Group</title>
    <desc>Created with Sketch.</desc>
    <g id="Page-1" stroke="none" stroke-width="1" fill="none" fill-rule="evenodd">
        <g id="Group" transform="translate(0.420790, 0.493490)" fill="#407EC9" fill-rule="nonzero">
            <path d="M1.07723485,19.5065104 L1.00396687,1 L11.7776583,1 L14.9284242,4.18479198 L14.9284242,6.80039586 C14.9284242,7.07653823 15.1522818,7.30039586 15.4284242,7.30039586 C15.7045665,7.30039586 15.9284242,7.07653823 15.9284242,6.80039586 L15.9284242,3.77372095 L12.1950214,0 L-8.8817842e-16,0 L0.0811860493,20.5065104 L5.57921045,20.5065104 C5.85535282,20.5065104 6.07921045,20.2826528 6.07921045,20.0065104 C6.07921045,19.730368 5.85535282,19.5065104 5.57921045,19.5065104 L1.07723485,19.5065104 Z" id="Path-2"></path>
            <path d="M10.6015117,14.4494177 C10.3871416,14.2753485 10.0722494,14.3080188 9.89818016,14.5223889 C9.72411096,14.7367589 9.75678126,15.0516512 9.97115133,15.2257204 L12.0546273,16.9175097 L15.3718673,12.9321149 C15.548526,12.7198737 15.5196808,12.4046081 15.3074397,12.2279493 C15.0951985,12.0512906 14.7799329,12.0801358 14.6032741,12.292377 L11.9180524,15.5184531 L10.6015117,14.4494177 Z" id="Path-3"></path>
            <path d="M6.0050366,14.5674349 C6.0050366,11.08123 8.60878027,7.95734555 12.5882601,7.95734555 C16.619272,7.95734555 19.1066889,10.761793 19.1066889,14.2602289 C19.1066889,18.259059 17.2104684,21.043283 12.9506016,21.043283 C8.60913864,21.043283 6.0050366,18.10883 6.0050366,14.5674349 Z M7.0050366,14.5674349 C7.0050366,17.5813796 9.18978708,20.043283 12.9506016,20.043283 C16.558513,20.043283 18.1066889,17.7700936 18.1066889,14.2602289 C18.1066889,11.2891425 16.0384915,8.95734555 12.5882601,8.95734555 C9.20545165,8.95734555 7.0050366,11.5973298 7.0050366,14.5674349 Z" id="Path-4"></path>
        </g>
    </g>
</svg>