<?xml version="1.0" encoding="UTF-8"?>
<svg width="22px" height="19px" viewBox="0 0 22 19" version="1.1" xmlns="http://www.w3.org/2000/svg" xmlns:xlink="http://www.w3.org/1999/xlink">
    <!-- Generator: Sketch 57.1 (83088) - https://sketch.com -->
    <title>ic_resource_website</title>
    <desc>Created with Sketch.</desc>
    <g id="Page-1" stroke="none" stroke-width="1" fill="none" fill-rule="evenodd">
        <g id="ic_resource_website" fill="#407EC9" fill-rule="nonzero">
            <path d="M7.63717,18.7567 C7.32521816,18.7567 7.0894316,18.4741778 7.14523496,18.1672577 L7.762,14.774 L2.32743,14.7743 C1.34331428,14.7743 0.5,13.931029 0.5,12.9469 L0.5,2.32743 C0.5,2.2038179 0.544856745,2.09068265 0.619180455,2.00341404 C0.778952281,1.16518837 1.54191612,0.5 2.41593,0.5 L19.6726,0.5 C20.6566574,0.5 21.5,1.34334263 21.5,2.32743 L21.5,12.9469 C21.5,13.931014 20.6566707,14.7743 19.6726,14.7743 L14.237,14.774 L14.8547364,18.1672651 C14.9105346,18.474183 14.6747488,18.7567 14.3628,18.7567 L10.999845,18.7567 L7.63717,18.7567 Z M16.3096,17.7566 C16.9762667,17.7566 16.9762667,18.7566 16.3096,18.7566 L16.3096,17.7566 Z M5.69009,17.7566 L5.69009,18.7566 C5.06046037,18.7566 5.02548095,17.8646247 5.58515173,17.7655163 L5.69009,17.7566 Z M13.2376051,14.8629 L8.76241856,14.8629 L8.23627581,17.7567 L13.7637033,17.7567 L13.2376051,14.8629 Z M19.6726,1.5 L2.41593,1.5 C1.98410636,1.5 1.5885,1.89560839 1.5885,2.32743 C1.5885,2.4329576 1.55580827,2.53084964 1.5,2.61153092 L1.5,12.9469 C1.5,13.3787328 1.89558753,13.7743 2.32743,13.7743 L19.6726,13.7743 C20.1043975,13.7743 20.5,13.3787178 20.5,12.9469 L20.5,2.32743 C20.5,1.89562737 20.1043726,1.5 19.6726,1.5 Z" id="Shape"></path>
            <path d="M5.44009,18.7566 L16.5596,18.7566 C16.8357424,18.7566 17.0596,18.5327424 17.0596,18.2566 C17.0596,17.9804576 16.8357424,17.7566 16.5596,17.7566 L5.44009,17.7566 C5.16394763,17.7566 4.94009,17.9804576 4.94009,18.2566 C4.94009,18.5327424 5.16394763,18.7566 5.44009,18.7566 Z" id="Path-2"></path>
        </g>
    </g>
</svg>